^C:\USERS\ZAKIR\SOURCE\REPOS\17\FINAL_HW_18\FINAL_HW_18.CPP
C:\USERS\ZAKIR\SOURCE\REPOS\17\FINAL_HW_18\X64\DEBUG\VC143.PDB
C:\USERS\ZAKIR\SOURCE\REPOS\17\FINAL_HW_18\X64\DEBUG\VC143.IDB
C:\USERS\ZAKIR\SOURCE\REPOS\17\FINAL_HW_18\X64\DEBUG\FINAL_HW_18.OBJ
